%YAML 1.1
%TAG !u! tag:unity3d.com,2011:
--- !u!114 &11400000
MonoBehaviour:
  m_ObjectHideFlags: 0
  m_CorrespondingSourceObject: {fileID: 0}
  m_PrefabInstance: {fileID: 0}
  m_PrefabAsset: {fileID: 0}
  m_GameObject: {fileID: 0}
  m_Enabled: 1
  m_EditorHideFlags: 0
  m_Script: {fileID: 11500000, guid: 2c56468f66b69bc44b0e977347de1f3c, type: 3}
  m_Name: Attack1
  m_EditorClassIdentifier: 
  damage: 100
  comboSize: 14000000230000002d000000
  numberHitsCombo: 2
