%YAML 1.1
%TAG !u! tag:unity3d.com,2011:
--- !u!114 &11400000
MonoBehaviour:
  m_ObjectHideFlags: 0
  m_CorrespondingSourceObject: {fileID: 0}
  m_PrefabInstance: {fileID: 0}
  m_PrefabAsset: {fileID: 0}
  m_GameObject: {fileID: 0}
  m_Enabled: 1
  m_EditorHideFlags: 0
  m_Script: {fileID: 11500000, guid: 513840a53b0f0fc41b891518f7177c5d, type: 3}
  m_Name: Player
  m_EditorClassIdentifier: 
  hpMax: 500
  hp: 300
  mpMax: 50
  mp: 260
  attack: 25
  defense: 15
  posicio: {x: 22.34985, y: 0.0012266636, z: -36.789383}
  onCenitalMode: 1
  invencible: 0
  loaded: 0
  loadPos: 0
  savedPosition: {x: 0, y: 0, z: 0}
  cinematic: 0
