%YAML 1.1
%TAG !u! tag:unity3d.com,2011:
--- !u!114 &11400000
MonoBehaviour:
  m_ObjectHideFlags: 0
  m_CorrespondingSourceObject: {fileID: 0}
  m_PrefabInstance: {fileID: 0}
  m_PrefabAsset: {fileID: 0}
  m_GameObject: {fileID: 0}
  m_Enabled: 1
  m_EditorHideFlags: 0
  m_Script: {fileID: 11500000, guid: f1d4d493a51383a4db63f8876b8e6c8a, type: 3}
  m_Name: StatsPublicsPlayer
  m_EditorClassIdentifier: 
  posicio: {x: 0, y: 0, z: 0}
  onCenitalMode: 0
